Assignment: Temporal Diversity
…
dplyr::filter(time.by.species,plot_id==6)

## Source: local data frame [26 x 50]
## Groups: year, plot_id [26]
## 
##     year plot_id Ammodramus_savannarum Ammospermophilus_harrisi
##    <int>   <int>                 <dbl>                    <dbl>
## 1   1977       6                     0                        0
## 2   1978       6                     0                        0
## 3   1979       6                     0                        0
## 4   1980       6                     0                        0
## 5   1981       6                     0                        0
## 6   1982       6                     0                        0
## 7   1983       6                     0                        0
## 8   1984       6                     0                        0
## 9   1985       6                     0                        0
## 10  1986       6                     0                        0
## # ... with 16 more rows, and 46 more variables:
## #   Amphispiza_bilineata <dbl>, Baiomys_taylori <dbl>,
## #   Calamospiza_melanocorys <dbl>, Callipepla_squamata <dbl>,
## #   Campylorhynchus_brunneicapillus <dbl>, Chaetodipus_baileyi <dbl>,
## #   Chaetodipus_intermedius <dbl>, Chaetodipus_penicillatus <dbl>,
## #   Chaetodipus_sp. <dbl>, Cnemidophorus_tigris <dbl>,
## #   Cnemidophorus_uniparens <dbl>, Crotalus_scutalatus <dbl>,
## #   Crotalus_viridis <dbl>, Dipodomys_merriami <dbl>,
## #   Dipodomys_ordii <dbl>, Dipodomys_sp. <dbl>,
…
Use the tools outlined in the Handout to create an ARMA model.

time.by.spec.2 <- filter(portal, taxa=="Rodent") %>%
  group_by(year,month, plot_id) %>%
  count(taxon)

time.by.spec.2$season <- NA
time.by.spec.2$season <- time.by.spec.2$month %in% c(6:10)

time.by.spec.2$season <- ifelse(time.by.spec.2$season == TRUE, "rain", "norain")

group_by(time.by.spec.2, year, season)

## Source: local data frame [16,391 x 6]
## Groups: year, season [52]
## 
##     year month plot_id                    taxon     n season
##    <int> <int>   <int>                    <chr> <int>  <chr>
## 1   1977     7       1       Dipodomys_merriami     2   rain
## 2   1977     7       1       Perognathus_flavus     1   rain
## 3   1977     7       2 Chaetodipus_penicillatus     1   rain
## 4   1977     7       2       Dipodomys_merriami     1   rain
## 5   1977     7       2         Neotoma_albigula     1   rain
## 6   1977     7       2      Peromyscus_eremicus     1   rain
## 7   1977     7       3       Dipodomys_merriami     2   rain
## 8   1977     7       3    Dipodomys_spectabilis     1   rain
## 9   1977     7       3         Neotoma_albigula     1   rain
## 10  1977     7       4       Dipodomys_merriami     1   rain
## # ... with 16,381 more rows
…
